[gd_scene load_steps=3 format=3 uid="uid://vovc45buqxsd"]

[ext_resource type="Script" path="res://scripts/my_classes/scaling_anomaly.gd" id="1_v46am"]
[ext_resource type="Texture2D" uid="uid://bpcua6h8db71h" path="res://assets/sprites/rooms/livingroom/grant_us_eyes.jpg" id="2_af72f"]

[node name="GrantUsEyes" type="Node"]
script = ExtResource("1_v46am")

[node name="Sprite2D" type="Sprite2D" parent="."]
position = Vector2(-9.53674e-07, -2)
texture = ExtResource("2_af72f")
