[gd_scene load_steps=2 format=3 uid="uid://ch6quth6kmeax"]

[sub_resource type="GDScript" id="GDScript_v2f63"]
script/source = "extends CheckBox

# This is not ideal but shrugs?
func _on_toggled(toggled_on):
		$/root/Game/RoomUI/AnomalySelection._on_anomaly_checkbox_toggled(toggled_on, $\"..\".name)
"

[node name="AnomalySelect" type="VBoxContainer"]
offset_right = 40.0
offset_bottom = 40.0
theme_override_constants/separation = 6

[node name="Label" type="Label" parent="."]
layout_mode = 2
theme_override_font_sizes/font_size = 20
text = "Example Anomaly
"

[node name="CheckBox" type="CheckBox" parent="."]
layout_mode = 2
size_flags_horizontal = 4
script = SubResource("GDScript_v2f63")

[connection signal="toggled" from="CheckBox" to="CheckBox" method="_on_toggled"]
