[gd_scene load_steps=3 format=3 uid="uid://dvmhugqi3scy"]

[ext_resource type="Script" path="res://scripts/my_classes/game_timer.gd" id="1_cibv7"]
[ext_resource type="Script" path="res://scripts/game_manager.gd" id="1_nkq1n"]

[node name="GameManager" type="Node"]
script = ExtResource("1_nkq1n")

[node name="GameTimer" type="Node" parent="."]
script = ExtResource("1_cibv7")

[node name="AnomalyTimer" type="Timer" parent="GameTimer"]

[connection signal="timeout" from="GameTimer/AnomalyTimer" to="GameTimer" method="_on_anomaly_timer_timeout"]
