[gd_scene load_steps=3 format=3 uid="uid://djte64w5bvepx"]

[ext_resource type="Script" path="res://scripts/polyphonic_audio_player.gd" id="1_mne78"]
[ext_resource type="Resource" uid="uid://bst7e5hphxhyx" path="res://resources/sound_effect_audio_library.tres" id="2_j21fe"]

[node name="PolyphonicAudioPlayer" type="AudioStreamPlayer"]
script = ExtResource("1_mne78")
audio_library = ExtResource("2_j21fe")
