[gd_scene load_steps=2 format=3 uid="uid://jkxf0nn4ju06"]

[ext_resource type="Script" path="res://scripts/my_classes/room.gd" id="1_nvgkn"]

[node name="Room" type="Node"]
script = ExtResource("1_nvgkn")

[node name="RoomImage" type="Sprite2D" parent="."]
centered = false

[node name="Anomalies" type="Node" parent="."]
