[gd_resource type="Theme" load_steps=3 format=3 uid="uid://dgs8lkajtqhaf"]

[ext_resource type="StyleBox" uid="uid://butmb408q7fio" path="res://scenes/UI/button_style_box_theme.tres" id="1_ql506"]
[ext_resource type="FontFile" uid="uid://b4ffq2245efv2" path="res://assets/fonts/Anonymous Pro.ttf" id="2_m3cqj"]

[resource]
default_font = ExtResource("2_m3cqj")
default_font_size = 28
Button/styles/disabled = null
Button/styles/normal = ExtResource("1_ql506")
