[gd_scene load_steps=4 format=3 uid="uid://dfom5bou4vp81"]

[ext_resource type="Script" path="res://scripts/my_classes/room.gd" id="1_a6ryt"]
[ext_resource type="Texture2D" uid="uid://cwmbtg2dfep5g" path="res://assets/sprites/dev/rooms/basement/basement_1.png" id="2_wsv6w"]
[ext_resource type="Texture2D" uid="uid://ct6rgxu2jlw45" path="res://assets/sprites/dev/rooms/basement/basement_2.png" id="3_kpd5x"]

[node name="Basement" type="Node"]
script = ExtResource("1_a6ryt")

[node name="RoomSprite0" type="Sprite2D" parent="."]
texture = ExtResource("2_wsv6w")
centered = false

[node name="RoomSprite2" type="Sprite2D" parent="."]
texture = ExtResource("3_kpd5x")
centered = false
